{
  "language": "Solidity",
  "sources": {
    "contracts/facets/AccessControlFacet.sol": {
      "content": "//SPDX-License-Identifier: Unlicense\npragma solidity 0.8.10;\nimport \"./../libraries/LibAppStorage.sol\";\nimport \"@openzeppelin/contracts/access/IAccessControl.sol\";\n\ncontract AccessControlFacet is Modifiers, IAccessControl {\n    function hasRole(bytes32 role, address account)\n        public\n        view\n        virtual\n        override\n        returns (bool)\n    {\n        return s.roles[role].members[account];\n    }\n\n    function _checkRole(bytes32 role, address account) internal view virtual {\n        if (!hasRole(role, account)) {\n            revert(\n                string(\n                    abi.encodePacked(\n                        \"AccessControl: account \",\n                        Strings.toHexString(uint160(account), 20),\n                        \" is missing role \",\n                        Strings.toHexString(uint256(role), 32)\n                    )\n                )\n            );\n        }\n    }\n\n    function getRoleAdmin(bytes32 role)\n        public\n        view\n        virtual\n        override\n        returns (bytes32)\n    {\n        return s.roles[role].adminRole;\n    }\n\n    function grantRole(bytes32 role, address account)\n        public\n        virtual\n        override\n        onlyRole(getRoleAdmin(role))\n    {\n        _grantRole(role, account);\n    }\n\n    function revokeRole(bytes32 role, address account)\n        public\n        virtual\n        override\n        onlyRole(getRoleAdmin(role))\n    {\n        _revokeRole(role, account);\n    }\n\n    function renounceRole(bytes32 role, address account)\n        public\n        virtual\n        override\n    {\n        require(\n            account == _msgSender(),\n            \"AccessControl: can only renounce roles for self\"\n        );\n\n        _revokeRole(role, account);\n    }\n\n    function _setupRole(bytes32 role, address account) internal virtual {\n        _grantRole(role, account);\n    }\n\n    function _setRoleAdmin(bytes32 role, bytes32 adminRole) internal virtual {\n        bytes32 previousAdminRole = getRoleAdmin(role);\n        s.roles[role].adminRole = adminRole;\n        emit RoleAdminChanged(role, previousAdminRole, adminRole);\n    }\n\n    function _grantRole(bytes32 role, address account) internal virtual {\n        if (!hasRole(role, account)) {\n            s.roles[role].members[account] = true;\n            emit RoleGranted(role, account, _msgSender());\n        }\n    }\n\n    function _revokeRole(bytes32 role, address account) internal virtual {\n        if (hasRole(role, account)) {\n            s.roles[role].members[account] = false;\n            emit RoleRevoked(role, account, _msgSender());\n        }\n    }\n}\n"
    },
    "contracts/libraries/LibAppStorage.sol": {
      "content": "//SPDX-License-Identifier: Unlicense\npragma solidity 0.8.10;\n\nimport \"hardhat-deploy/solc_0.8/diamond/UsingDiamondOwner.sol\";\n\nimport \"@openzeppelin/contracts/utils/Strings.sol\";\nimport \"@openzeppelin/contracts/utils/Context.sol\";\nimport \"@openzeppelin/contracts/utils/math/SafeMath.sol\";\nimport \"@openzeppelin/contracts/token/ERC20/utils/SafeERC20.sol\";\nimport \"@openzeppelin/contracts/interfaces/IERC20.sol\";\n\nbytes32 constant AGREEMENT_TYPEHASH = keccak256(\n    \"RentalAgreement(uint256 tokenId,uint256 pricePerUnit,address currency,uint64 unitOfTime,uint64 deadline,uint32 numberOfUnits)\"\n);\n\nbytes32 constant MINTING_PERMISSION_TYPEHASH = keccak256(\n    \"MintingPermission(uint256 tokenId,address to,address currency,uint256 mintingPrice,string uri)\"\n);\n\nbytes32 constant PAYBACK_TYPEHASH = keccak256(\n    \"RentalPayback(uint256 tokenId,uint256 paybackAmount,address renter,uint64 deadline)\"\n);\n\nbytes32 constant DEFAULT_ADMIN_ROLE = 0x00;\nbytes32 constant MINTER_ROLE = keccak256(\"MINTER_ROLE\");\n\nstruct MintingPermission {\n    uint256 tokenId;\n    address to;\n    address currency;\n    uint256 mintingPrice;\n    string uri;\n    bytes signature;\n}\n\nstruct RentalAgreement {\n    uint256 tokenId;\n    uint256 pricePerUnit;\n    address currency;\n    uint64 unitOfTime;\n    uint64 deadline;\n    uint32 numberOfUnits;\n}\n\nstruct Rental {\n    address owner;\n    address renter;\n    uint64 startingTimestamp;\n    RentalAgreement agreement;\n}\n\nstruct RentalPayback {\n    uint256 tokenId;\n    uint256 paybackAmount;\n    address renter;\n    uint64 deadline;\n}\n\nstruct RoleData {\n    mapping(address => bool) members;\n    bytes32 adminRole;\n}\n\n// DO NOT MODIFIY FIELDS ORDER\n// JUST ADD NEW FIELDS\nstruct AppStorage {\n    // for ERC721 metadata\n    uint256 counter;\n    string name;\n    string symbol;\n    mapping(uint256 => address) erc721Owners;\n    mapping(address => uint256) erc721Balances;\n    mapping(uint256 => address) erc721TokenApprovals;\n    mapping(address => mapping(address => bool)) erc721OperatorApprovals;\n    mapping(uint256 => string) erc721TokenURIs;\n    // for withdrawal\n    mapping(address => uint256) ethPending;\n    mapping(address => mapping(address => uint256)) erc20Pending;\n    // for access control\n    mapping(bytes32 => RoleData) roles;\n    // for rental\n    mapping(uint256 => Rental) rentals;\n    // for EIP712\n    string domainName;\n    string version;\n    bytes32 _CACHED_DOMAIN_SEPARATOR;\n    uint256 _CACHED_CHAIN_ID;\n    address _CACHED_THIS;\n    bytes32 _HASHED_NAME;\n    bytes32 _HASHED_VERSION;\n    bytes32 _TYPE_HASH;\n    // for underlying currency facet\n    bool supportsEther;\n    mapping(address => bool) supportsCurrency;\n    address feeCollector;\n}\n\nlibrary LibAppStorage {\n    function diamondStorage() internal pure returns (AppStorage storage s) {\n        assembly {\n            s.slot := 0\n        }\n    }\n}\n\ncontract Modifiers is UsingDiamondOwner, Context {\n    AppStorage internal s;\n\n    modifier onlyRole(bytes32 role) {\n        require(\n            s.roles[role].members[msg.sender],\n            string(\n                abi.encodePacked(\n                    \"AccessControl: account \",\n                    Strings.toHexString(uint160(msg.sender), 20),\n                    \" is missing role \",\n                    Strings.toHexString(uint256(role), 32)\n                )\n            )\n        );\n        _;\n    }\n}\n"
    },
    "@openzeppelin/contracts/access/IAccessControl.sol": {
      "content": "// SPDX-License-Identifier: MIT\n// OpenZeppelin Contracts v4.4.1 (access/IAccessControl.sol)\n\npragma solidity ^0.8.0;\n\n/**\n * @dev External interface of AccessControl declared to support ERC165 detection.\n */\ninterface IAccessControl {\n    /**\n     * @dev Emitted when `newAdminRole` is set as ``role``'s admin role, replacing `previousAdminRole`\n     *\n     * `DEFAULT_ADMIN_ROLE` is the starting admin for all roles, despite\n     * {RoleAdminChanged} not being emitted signaling this.\n     *\n     * _Available since v3.1._\n     */\n    event RoleAdminChanged(bytes32 indexed role, bytes32 indexed previousAdminRole, bytes32 indexed newAdminRole);\n\n    /**\n     * @dev Emitted when `account` is granted `role`.\n     *\n     * `sender` is the account that originated the contract call, an admin role\n     * bearer except when using {AccessControl-_setupRole}.\n     */\n    event RoleGranted(bytes32 indexed role, address indexed account, address indexed sender);\n\n    /**\n     * @dev Emitted when `account` is revoked `role`.\n     *\n     * `sender` is the account that originated the contract call:\n     *   - if using `revokeRole`, it is the admin role bearer\n     *   - if using `renounceRole`, it is the role bearer (i.e. `account`)\n     */\n    event RoleRevoked(bytes32 indexed role, address indexed account, address indexed sender);\n\n    /**\n     * @dev Returns `true` if `account` has been granted `role`.\n     */\n    function hasRole(bytes32 role, address account) external view returns (bool);\n\n    /**\n     * @dev Returns the admin role that controls `role`. See {grantRole} and\n     * {revokeRole}.\n     *\n     * To change a role's admin, use {AccessControl-_setRoleAdmin}.\n     */\n    function getRoleAdmin(bytes32 role) external view returns (bytes32);\n\n    /**\n     * @dev Grants `role` to `account`.\n     *\n     * If `account` had not been already granted `role`, emits a {RoleGranted}\n     * event.\n     *\n     * Requirements:\n     *\n     * - the caller must have ``role``'s admin role.\n     */\n    function grantRole(bytes32 role, address account) external;\n\n    /**\n     * @dev Revokes `role` from `account`.\n     *\n     * If `account` had been granted `role`, emits a {RoleRevoked} event.\n     *\n     * Requirements:\n     *\n     * - the caller must have ``role``'s admin role.\n     */\n    function revokeRole(bytes32 role, address account) external;\n\n    /**\n     * @dev Revokes `role` from the calling account.\n     *\n     * Roles are often managed via {grantRole} and {revokeRole}: this function's\n     * purpose is to provide a mechanism for accounts to lose their privileges\n     * if they are compromised (such as when a trusted device is misplaced).\n     *\n     * If the calling account had been granted `role`, emits a {RoleRevoked}\n     * event.\n     *\n     * Requirements:\n     *\n     * - the caller must be `account`.\n     */\n    function renounceRole(bytes32 role, address account) external;\n}\n"
    },
    "hardhat-deploy/solc_0.8/diamond/UsingDiamondOwner.sol": {
      "content": "// SPDX-License-Identifier: MIT\npragma solidity ^0.8.0;\n\nimport \"./libraries/LibDiamond.sol\";\n\ncontract UsingDiamondOwner {\n    modifier onlyOwner() {\n        LibDiamond.DiamondStorage storage ds = LibDiamond.diamondStorage();\n        require(msg.sender == ds.contractOwner, \"Only owner is allowed to perform this action\");\n        _;\n    }\n}\n"
    },
    "@openzeppelin/contracts/utils/Strings.sol": {
      "content": "// SPDX-License-Identifier: MIT\n// OpenZeppelin Contracts v4.4.1 (utils/Strings.sol)\n\npragma solidity ^0.8.0;\n\n/**\n * @dev String operations.\n */\nlibrary Strings {\n    bytes16 private constant _HEX_SYMBOLS = \"0123456789abcdef\";\n\n    /**\n     * @dev Converts a `uint256` to its ASCII `string` decimal representation.\n     */\n    function toString(uint256 value) internal pure returns (string memory) {\n        // Inspired by OraclizeAPI's implementation - MIT licence\n        // https://github.com/oraclize/ethereum-api/blob/b42146b063c7d6ee1358846c198246239e9360e8/oraclizeAPI_0.4.25.sol\n\n        if (value == 0) {\n            return \"0\";\n        }\n        uint256 temp = value;\n        uint256 digits;\n        while (temp != 0) {\n            digits++;\n            temp /= 10;\n        }\n        bytes memory buffer = new bytes(digits);\n        while (value != 0) {\n            digits -= 1;\n            buffer[digits] = bytes1(uint8(48 + uint256(value % 10)));\n            value /= 10;\n        }\n        return string(buffer);\n    }\n\n    /**\n     * @dev Converts a `uint256` to its ASCII `string` hexadecimal representation.\n     */\n    function toHexString(uint256 value) internal pure returns (string memory) {\n        if (value == 0) {\n            return \"0x00\";\n        }\n        uint256 temp = value;\n        uint256 length = 0;\n        while (temp != 0) {\n            length++;\n            temp >>= 8;\n        }\n        return toHexString(value, length);\n    }\n\n    /**\n     * @dev Converts a `uint256` to its ASCII `string` hexadecimal representation with fixed length.\n     */\n    function toHexString(uint256 value, uint256 length) internal pure returns (string memory) {\n        bytes memory buffer = new bytes(2 * length + 2);\n        buffer[0] = \"0\";\n        buffer[1] = \"x\";\n        for (uint256 i = 2 * length + 1; i > 1; --i) {\n            buffer[i] = _HEX_SYMBOLS[value & 0xf];\n            value >>= 4;\n        }\n        require(value == 0, \"Strings: hex length insufficient\");\n        return string(buffer);\n    }\n}\n"
    },
    "@openzeppelin/contracts/utils/Context.sol": {
      "content": "// SPDX-License-Identifier: MIT\n// OpenZeppelin Contracts v4.4.1 (utils/Context.sol)\n\npragma solidity ^0.8.0;\n\n/**\n * @dev Provides information about the current execution context, including the\n * sender of the transaction and its data. While these are generally available\n * via msg.sender and msg.data, they should not be accessed in such a direct\n * manner, since when dealing with meta-transactions the account sending and\n * paying for execution may not be the actual sender (as far as an application\n * is concerned).\n *\n * This contract is only required for intermediate, library-like contracts.\n */\nabstract contract Context {\n    function _msgSender() internal view virtual returns (address) {\n        return msg.sender;\n    }\n\n    function _msgData() internal view virtual returns (bytes calldata) {\n        return msg.data;\n    }\n}\n"
    },
    "@openzeppelin/contracts/utils/math/SafeMath.sol": {
      "content": "// SPDX-License-Identifier: MIT\n// OpenZeppelin Contracts v4.4.1 (utils/math/SafeMath.sol)\n\npragma solidity ^0.8.0;\n\n// CAUTION\n// This version of SafeMath should only be used with Solidity 0.8 or later,\n// because it relies on the compiler's built in overflow checks.\n\n/**\n * @dev Wrappers over Solidity's arithmetic operations.\n *\n * NOTE: `SafeMath` is generally not needed starting with Solidity 0.8, since the compiler\n * now has built in overflow checking.\n */\nlibrary SafeMath {\n    /**\n     * @dev Returns the addition of two unsigned integers, with an overflow flag.\n     *\n     * _Available since v3.4._\n     */\n    function tryAdd(uint256 a, uint256 b) internal pure returns (bool, uint256) {\n        unchecked {\n            uint256 c = a + b;\n            if (c < a) return (false, 0);\n            return (true, c);\n        }\n    }\n\n    /**\n     * @dev Returns the substraction of two unsigned integers, with an overflow flag.\n     *\n     * _Available since v3.4._\n     */\n    function trySub(uint256 a, uint256 b) internal pure returns (bool, uint256) {\n        unchecked {\n            if (b > a) return (false, 0);\n            return (true, a - b);\n        }\n    }\n\n    /**\n     * @dev Returns the multiplication of two unsigned integers, with an overflow flag.\n     *\n     * _Available since v3.4._\n     */\n    function tryMul(uint256 a, uint256 b) internal pure returns (bool, uint256) {\n        unchecked {\n            // Gas optimization: this is cheaper than requiring 'a' not being zero, but the\n            // benefit is lost if 'b' is also tested.\n            // See: https://github.com/OpenZeppelin/openzeppelin-contracts/pull/522\n            if (a == 0) return (true, 0);\n            uint256 c = a * b;\n            if (c / a != b) return (false, 0);\n            return (true, c);\n        }\n    }\n\n    /**\n     * @dev Returns the division of two unsigned integers, with a division by zero flag.\n     *\n     * _Available since v3.4._\n     */\n    function tryDiv(uint256 a, uint256 b) internal pure returns (bool, uint256) {\n        unchecked {\n            if (b == 0) return (false, 0);\n            return (true, a / b);\n        }\n    }\n\n    /**\n     * @dev Returns the remainder of dividing two unsigned integers, with a division by zero flag.\n     *\n     * _Available since v3.4._\n     */\n    function tryMod(uint256 a, uint256 b) internal pure returns (bool, uint256) {\n        unchecked {\n            if (b == 0) return (false, 0);\n            return (true, a % b);\n        }\n    }\n\n    /**\n     * @dev Returns the addition of two unsigned integers, reverting on\n     * overflow.\n     *\n     * Counterpart to Solidity's `+` operator.\n     *\n     * Requirements:\n     *\n     * - Addition cannot overflow.\n     */\n    function add(uint256 a, uint256 b) internal pure returns (uint256) {\n        return a + b;\n    }\n\n    /**\n     * @dev Returns the subtraction of two unsigned integers, reverting on\n     * overflow (when the result is negative).\n     *\n     * Counterpart to Solidity's `-` operator.\n     *\n     * Requirements:\n     *\n     * - Subtraction cannot overflow.\n     */\n    function sub(uint256 a, uint256 b) internal pure returns (uint256) {\n        return a - b;\n    }\n\n    /**\n     * @dev Returns the multiplication of two unsigned integers, reverting on\n     * overflow.\n     *\n     * Counterpart to Solidity's `*` operator.\n     *\n     * Requirements:\n     *\n     * - Multiplication cannot overflow.\n     */\n    function mul(uint256 a, uint256 b) internal pure returns (uint256) {\n        return a * b;\n    }\n\n    /**\n     * @dev Returns the integer division of two unsigned integers, reverting on\n     * division by zero. The result is rounded towards zero.\n     *\n     * Counterpart to Solidity's `/` operator.\n     *\n     * Requirements:\n     *\n     * - The divisor cannot be zero.\n     */\n    function div(uint256 a, uint256 b) internal pure returns (uint256) {\n        return a / b;\n    }\n\n    /**\n     * @dev Returns the remainder of dividing two unsigned integers. (unsigned integer modulo),\n     * reverting when dividing by zero.\n     *\n     * Counterpart to Solidity's `%` operator. This function uses a `revert`\n     * opcode (which leaves remaining gas untouched) while Solidity uses an\n     * invalid opcode to revert (consuming all remaining gas).\n     *\n     * Requirements:\n     *\n     * - The divisor cannot be zero.\n     */\n    function mod(uint256 a, uint256 b) internal pure returns (uint256) {\n        return a % b;\n    }\n\n    /**\n     * @dev Returns the subtraction of two unsigned integers, reverting with custom message on\n     * overflow (when the result is negative).\n     *\n     * CAUTION: This function is deprecated because it requires allocating memory for the error\n     * message unnecessarily. For custom revert reasons use {trySub}.\n     *\n     * Counterpart to Solidity's `-` operator.\n     *\n     * Requirements:\n     *\n     * - Subtraction cannot overflow.\n     */\n    function sub(\n        uint256 a,\n        uint256 b,\n        string memory errorMessage\n    ) internal pure returns (uint256) {\n        unchecked {\n            require(b <= a, errorMessage);\n            return a - b;\n        }\n    }\n\n    /**\n     * @dev Returns the integer division of two unsigned integers, reverting with custom message on\n     * division by zero. The result is rounded towards zero.\n     *\n     * Counterpart to Solidity's `/` operator. Note: this function uses a\n     * `revert` opcode (which leaves remaining gas untouched) while Solidity\n     * uses an invalid opcode to revert (consuming all remaining gas).\n     *\n     * Requirements:\n     *\n     * - The divisor cannot be zero.\n     */\n    function div(\n        uint256 a,\n        uint256 b,\n        string memory errorMessage\n    ) internal pure returns (uint256) {\n        unchecked {\n            require(b > 0, errorMessage);\n            return a / b;\n        }\n    }\n\n    /**\n     * @dev Returns the remainder of dividing two unsigned integers. (unsigned integer modulo),\n     * reverting with custom message when dividing by zero.\n     *\n     * CAUTION: This function is deprecated because it requires allocating memory for the error\n     * message unnecessarily. For custom revert reasons use {tryMod}.\n     *\n     * Counterpart to Solidity's `%` operator. This function uses a `revert`\n     * opcode (which leaves remaining gas untouched) while Solidity uses an\n     * invalid opcode to revert (consuming all remaining gas).\n     *\n     * Requirements:\n     *\n     * - The divisor cannot be zero.\n     */\n    function mod(\n        uint256 a,\n        uint256 b,\n        string memory errorMessage\n    ) internal pure returns (uint256) {\n        unchecked {\n            require(b > 0, errorMessage);\n            return a % b;\n        }\n    }\n}\n"
    },
    "@openzeppelin/contracts/token/ERC20/utils/SafeERC20.sol": {
      "content": "// SPDX-License-Identifier: MIT\n// OpenZeppelin Contracts v4.4.1 (token/ERC20/utils/SafeERC20.sol)\n\npragma solidity ^0.8.0;\n\nimport \"../IERC20.sol\";\nimport \"../../../utils/Address.sol\";\n\n/**\n * @title SafeERC20\n * @dev Wrappers around ERC20 operations that throw on failure (when the token\n * contract returns false). Tokens that return no value (and instead revert or\n * throw on failure) are also supported, non-reverting calls are assumed to be\n * successful.\n * To use this library you can add a `using SafeERC20 for IERC20;` statement to your contract,\n * which allows you to call the safe operations as `token.safeTransfer(...)`, etc.\n */\nlibrary SafeERC20 {\n    using Address for address;\n\n    function safeTransfer(\n        IERC20 token,\n        address to,\n        uint256 value\n    ) internal {\n        _callOptionalReturn(token, abi.encodeWithSelector(token.transfer.selector, to, value));\n    }\n\n    function safeTransferFrom(\n        IERC20 token,\n        address from,\n        address to,\n        uint256 value\n    ) internal {\n        _callOptionalReturn(token, abi.encodeWithSelector(token.transferFrom.selector, from, to, value));\n    }\n\n    /**\n     * @dev Deprecated. This function has issues similar to the ones found in\n     * {IERC20-approve}, and its usage is discouraged.\n     *\n     * Whenever possible, use {safeIncreaseAllowance} and\n     * {safeDecreaseAllowance} instead.\n     */\n    function safeApprove(\n        IERC20 token,\n        address spender,\n        uint256 value\n    ) internal {\n        // safeApprove should only be called when setting an initial allowance,\n        // or when resetting it to zero. To increase and decrease it, use\n        // 'safeIncreaseAllowance' and 'safeDecreaseAllowance'\n        require(\n            (value == 0) || (token.allowance(address(this), spender) == 0),\n            \"SafeERC20: approve from non-zero to non-zero allowance\"\n        );\n        _callOptionalReturn(token, abi.encodeWithSelector(token.approve.selector, spender, value));\n    }\n\n    function safeIncreaseAllowance(\n        IERC20 token,\n        address spender,\n        uint256 value\n    ) internal {\n        uint256 newAllowance = token.allowance(address(this), spender) + value;\n        _callOptionalReturn(token, abi.encodeWithSelector(token.approve.selector, spender, newAllowance));\n    }\n\n    function safeDecreaseAllowance(\n        IERC20 token,\n        address spender,\n        uint256 value\n    ) internal {\n        unchecked {\n            uint256 oldAllowance = token.allowance(address(this), spender);\n            require(oldAllowance >= value, \"SafeERC20: decreased allowance below zero\");\n            uint256 newAllowance = oldAllowance - value;\n            _callOptionalReturn(token, abi.encodeWithSelector(token.approve.selector, spender, newAllowance));\n        }\n    }\n\n    /**\n     * @dev Imitates a Solidity high-level call (i.e. a regular function call to a contract), relaxing the requirement\n     * on the return value: the return value is optional (but if data is returned, it must not be false).\n     * @param token The token targeted by the call.\n     * @param data The call data (encoded using abi.encode or one of its variants).\n     */\n    function _callOptionalReturn(IERC20 token, bytes memory data) private {\n        // We need to perform a low level call here, to bypass Solidity's return data size checking mechanism, since\n        // we're implementing it ourselves. We use {Address.functionCall} to perform this call, which verifies that\n        // the target address contains contract code and also asserts for success in the low-level call.\n\n        bytes memory returndata = address(token).functionCall(data, \"SafeERC20: low-level call failed\");\n        if (returndata.length > 0) {\n            // Return data is optional\n            require(abi.decode(returndata, (bool)), \"SafeERC20: ERC20 operation did not succeed\");\n        }\n    }\n}\n"
    },
    "@openzeppelin/contracts/interfaces/IERC20.sol": {
      "content": "// SPDX-License-Identifier: MIT\n// OpenZeppelin Contracts v4.4.1 (interfaces/IERC20.sol)\n\npragma solidity ^0.8.0;\n\nimport \"../token/ERC20/IERC20.sol\";\n"
    },
    "hardhat-deploy/solc_0.8/diamond/libraries/LibDiamond.sol": {
      "content": "// SPDX-License-Identifier: MIT\npragma solidity ^0.8.0;\n\n/******************************************************************************\\\n* Author: Nick Mudge <nick@perfectabstractions.com> (https://twitter.com/mudgen)\n* EIP-2535 Diamonds: https://eips.ethereum.org/EIPS/eip-2535\n/******************************************************************************/\nimport { IDiamondCut } from \"../interfaces/IDiamondCut.sol\";\n\nlibrary LibDiamond {\n    bytes32 constant DIAMOND_STORAGE_POSITION = keccak256(\"diamond.standard.diamond.storage\");\n\n    struct FacetAddressAndPosition {\n        address facetAddress;\n        uint96 functionSelectorPosition; // position in facetFunctionSelectors.functionSelectors array\n    }\n\n    struct FacetFunctionSelectors {\n        bytes4[] functionSelectors;\n        uint256 facetAddressPosition; // position of facetAddress in facetAddresses array\n    }\n\n    struct DiamondStorage {\n        // maps function selector to the facet address and\n        // the position of the selector in the facetFunctionSelectors.selectors array\n        mapping(bytes4 => FacetAddressAndPosition) selectorToFacetAndPosition;\n        // maps facet addresses to function selectors\n        mapping(address => FacetFunctionSelectors) facetFunctionSelectors;\n        // facet addresses\n        address[] facetAddresses;\n        // Used to query if a contract implements an interface.\n        // Used to implement ERC-165.\n        mapping(bytes4 => bool) supportedInterfaces;\n        // owner of the contract\n        address contractOwner;\n    }\n\n    function diamondStorage() internal pure returns (DiamondStorage storage ds) {\n        bytes32 position = DIAMOND_STORAGE_POSITION;\n        assembly {\n            ds.slot := position\n        }\n    }\n\n    event OwnershipTransferred(address indexed previousOwner, address indexed newOwner);\n\n    function setContractOwner(address _newOwner) internal {\n        DiamondStorage storage ds = diamondStorage();\n        address previousOwner = ds.contractOwner;\n        ds.contractOwner = _newOwner;\n        emit OwnershipTransferred(previousOwner, _newOwner);\n    }\n\n    function contractOwner() internal view returns (address contractOwner_) {\n        contractOwner_ = diamondStorage().contractOwner;\n    }\n\n    function enforceIsContractOwner() internal view {\n        require(msg.sender == diamondStorage().contractOwner, \"LibDiamond: Must be contract owner\");\n    }\n\n    event DiamondCut(IDiamondCut.FacetCut[] _diamondCut, address _init, bytes _calldata);\n\n    // Internal function version of diamondCut\n    function diamondCut(\n        IDiamondCut.FacetCut[] memory _diamondCut,\n        address _init,\n        bytes memory _calldata\n    ) internal {\n        for (uint256 facetIndex; facetIndex < _diamondCut.length; facetIndex++) {\n            IDiamondCut.FacetCutAction action = _diamondCut[facetIndex].action;\n            if (action == IDiamondCut.FacetCutAction.Add) {\n                addFunctions(_diamondCut[facetIndex].facetAddress, _diamondCut[facetIndex].functionSelectors);\n            } else if (action == IDiamondCut.FacetCutAction.Replace) {\n                replaceFunctions(_diamondCut[facetIndex].facetAddress, _diamondCut[facetIndex].functionSelectors);\n            } else if (action == IDiamondCut.FacetCutAction.Remove) {\n                removeFunctions(_diamondCut[facetIndex].facetAddress, _diamondCut[facetIndex].functionSelectors);\n            } else {\n                revert(\"LibDiamondCut: Incorrect FacetCutAction\");\n            }\n        }\n        emit DiamondCut(_diamondCut, _init, _calldata);\n        initializeDiamondCut(_init, _calldata);\n    }\n\n    function addFunctions(address _facetAddress, bytes4[] memory _functionSelectors) internal {\n        require(_functionSelectors.length > 0, \"LibDiamondCut: No selectors in facet to cut\");\n        DiamondStorage storage ds = diamondStorage();        \n        require(_facetAddress != address(0), \"LibDiamondCut: Add facet can't be address(0)\");\n        uint96 selectorPosition = uint96(ds.facetFunctionSelectors[_facetAddress].functionSelectors.length);\n        // add new facet address if it does not exist\n        if (selectorPosition == 0) {\n            addFacet(ds, _facetAddress);            \n        }\n        for (uint256 selectorIndex; selectorIndex < _functionSelectors.length; selectorIndex++) {\n            bytes4 selector = _functionSelectors[selectorIndex];\n            address oldFacetAddress = ds.selectorToFacetAndPosition[selector].facetAddress;\n            require(oldFacetAddress == address(0), \"LibDiamondCut: Can't add function that already exists\");\n            addFunction(ds, selector, selectorPosition, _facetAddress);\n            selectorPosition++;\n        }\n    }\n\n    function replaceFunctions(address _facetAddress, bytes4[] memory _functionSelectors) internal {\n        require(_functionSelectors.length > 0, \"LibDiamondCut: No selectors in facet to cut\");\n        DiamondStorage storage ds = diamondStorage();\n        require(_facetAddress != address(0), \"LibDiamondCut: Add facet can't be address(0)\");\n        uint96 selectorPosition = uint96(ds.facetFunctionSelectors[_facetAddress].functionSelectors.length);\n        // add new facet address if it does not exist\n        if (selectorPosition == 0) {\n            addFacet(ds, _facetAddress);\n        }\n        for (uint256 selectorIndex; selectorIndex < _functionSelectors.length; selectorIndex++) {\n            bytes4 selector = _functionSelectors[selectorIndex];\n            address oldFacetAddress = ds.selectorToFacetAndPosition[selector].facetAddress;\n            require(oldFacetAddress != _facetAddress, \"LibDiamondCut: Can't replace function with same function\");\n            removeFunction(ds, oldFacetAddress, selector);\n            addFunction(ds, selector, selectorPosition, _facetAddress);\n            selectorPosition++;\n        }\n    }\n\n    function removeFunctions(address _facetAddress, bytes4[] memory _functionSelectors) internal {\n        require(_functionSelectors.length > 0, \"LibDiamondCut: No selectors in facet to cut\");\n        DiamondStorage storage ds = diamondStorage();\n        // if function does not exist then do nothing and return\n        require(_facetAddress == address(0), \"LibDiamondCut: Remove facet address must be address(0)\");\n        for (uint256 selectorIndex; selectorIndex < _functionSelectors.length; selectorIndex++) {\n            bytes4 selector = _functionSelectors[selectorIndex];\n            address oldFacetAddress = ds.selectorToFacetAndPosition[selector].facetAddress;\n            removeFunction(ds, oldFacetAddress, selector);\n        }\n    }\n\n    function addFacet(DiamondStorage storage ds, address _facetAddress) internal {\n        enforceHasContractCode(_facetAddress, \"LibDiamondCut: New facet has no code\");\n        ds.facetFunctionSelectors[_facetAddress].facetAddressPosition = ds.facetAddresses.length;\n        ds.facetAddresses.push(_facetAddress);\n    }    \n\n\n    function addFunction(DiamondStorage storage ds, bytes4 _selector, uint96 _selectorPosition, address _facetAddress) internal {\n        ds.selectorToFacetAndPosition[_selector].functionSelectorPosition = _selectorPosition;\n        ds.facetFunctionSelectors[_facetAddress].functionSelectors.push(_selector);\n        ds.selectorToFacetAndPosition[_selector].facetAddress = _facetAddress;\n    }\n\n    function removeFunction(DiamondStorage storage ds, address _facetAddress, bytes4 _selector) internal {        \n        require(_facetAddress != address(0), \"LibDiamondCut: Can't remove function that doesn't exist\");\n        // an immutable function is a function defined directly in a diamond\n        require(_facetAddress != address(this), \"LibDiamondCut: Can't remove immutable function\");\n        // replace selector with last selector, then delete last selector\n        uint256 selectorPosition = ds.selectorToFacetAndPosition[_selector].functionSelectorPosition;\n        uint256 lastSelectorPosition = ds.facetFunctionSelectors[_facetAddress].functionSelectors.length - 1;\n        // if not the same then replace _selector with lastSelector\n        if (selectorPosition != lastSelectorPosition) {\n            bytes4 lastSelector = ds.facetFunctionSelectors[_facetAddress].functionSelectors[lastSelectorPosition];\n            ds.facetFunctionSelectors[_facetAddress].functionSelectors[selectorPosition] = lastSelector;\n            ds.selectorToFacetAndPosition[lastSelector].functionSelectorPosition = uint96(selectorPosition);\n        }\n        // delete the last selector\n        ds.facetFunctionSelectors[_facetAddress].functionSelectors.pop();\n        delete ds.selectorToFacetAndPosition[_selector];\n\n        // if no more selectors for facet address then delete the facet address\n        if (lastSelectorPosition == 0) {\n            // replace facet address with last facet address and delete last facet address\n            uint256 lastFacetAddressPosition = ds.facetAddresses.length - 1;\n            uint256 facetAddressPosition = ds.facetFunctionSelectors[_facetAddress].facetAddressPosition;\n            if (facetAddressPosition != lastFacetAddressPosition) {\n                address lastFacetAddress = ds.facetAddresses[lastFacetAddressPosition];\n                ds.facetAddresses[facetAddressPosition] = lastFacetAddress;\n                ds.facetFunctionSelectors[lastFacetAddress].facetAddressPosition = facetAddressPosition;\n            }\n            ds.facetAddresses.pop();\n            delete ds.facetFunctionSelectors[_facetAddress].facetAddressPosition;\n        }\n    }\n\n    function initializeDiamondCut(address _init, bytes memory _calldata) internal {\n        if (_init == address(0)) {\n            require(_calldata.length == 0, \"LibDiamondCut: _init is address(0) but_calldata is not empty\");\n        } else {\n            require(_calldata.length > 0, \"LibDiamondCut: _calldata is empty but _init is not address(0)\");\n            if (_init != address(this)) {\n                enforceHasContractCode(_init, \"LibDiamondCut: _init address has no code\");\n            }\n            (bool success, bytes memory error) = _init.delegatecall(_calldata);\n            if (!success) {\n                if (error.length > 0) {\n                    // bubble up the error\n                    revert(string(error));\n                } else {\n                    revert(\"LibDiamondCut: _init function reverted\");\n                }\n            }\n        }\n    }\n\n    function enforceHasContractCode(address _contract, string memory _errorMessage) internal view {\n        uint256 contractSize;\n        assembly {\n            contractSize := extcodesize(_contract)\n        }\n        require(contractSize > 0, _errorMessage);\n    }\n}\n"
    },
    "hardhat-deploy/solc_0.8/diamond/interfaces/IDiamondCut.sol": {
      "content": "// SPDX-License-Identifier: MIT\npragma solidity ^0.8.0;\n\n/******************************************************************************\\\n* Author: Nick Mudge <nick@perfectabstractions.com> (https://twitter.com/mudgen)\n* EIP-2535 Diamonds: https://eips.ethereum.org/EIPS/eip-2535\n/******************************************************************************/\n\ninterface IDiamondCut {\n    enum FacetCutAction {Add, Replace, Remove}\n    // Add=0, Replace=1, Remove=2\n\n    struct FacetCut {\n        address facetAddress;\n        FacetCutAction action;\n        bytes4[] functionSelectors;\n    }\n\n    /// @notice Add/replace/remove any number of functions and optionally execute\n    ///         a function with delegatecall\n    /// @param _diamondCut Contains the facet addresses and function selectors\n    /// @param _init The address of the contract or facet to execute _calldata\n    /// @param _calldata A function call, including function selector and arguments\n    ///                  _calldata is executed with delegatecall on _init\n    function diamondCut(\n        FacetCut[] calldata _diamondCut,\n        address _init,\n        bytes calldata _calldata\n    ) external;\n\n    event DiamondCut(FacetCut[] _diamondCut, address _init, bytes _calldata);\n}\n"
    },
    "@openzeppelin/contracts/token/ERC20/IERC20.sol": {
      "content": "// SPDX-License-Identifier: MIT\n// OpenZeppelin Contracts (last updated v4.5.0) (token/ERC20/IERC20.sol)\n\npragma solidity ^0.8.0;\n\n/**\n * @dev Interface of the ERC20 standard as defined in the EIP.\n */\ninterface IERC20 {\n    /**\n     * @dev Returns the amount of tokens in existence.\n     */\n    function totalSupply() external view returns (uint256);\n\n    /**\n     * @dev Returns the amount of tokens owned by `account`.\n     */\n    function balanceOf(address account) external view returns (uint256);\n\n    /**\n     * @dev Moves `amount` tokens from the caller's account to `to`.\n     *\n     * Returns a boolean value indicating whether the operation succeeded.\n     *\n     * Emits a {Transfer} event.\n     */\n    function transfer(address to, uint256 amount) external returns (bool);\n\n    /**\n     * @dev Returns the remaining number of tokens that `spender` will be\n     * allowed to spend on behalf of `owner` through {transferFrom}. This is\n     * zero by default.\n     *\n     * This value changes when {approve} or {transferFrom} are called.\n     */\n    function allowance(address owner, address spender) external view returns (uint256);\n\n    /**\n     * @dev Sets `amount` as the allowance of `spender` over the caller's tokens.\n     *\n     * Returns a boolean value indicating whether the operation succeeded.\n     *\n     * IMPORTANT: Beware that changing an allowance with this method brings the risk\n     * that someone may use both the old and the new allowance by unfortunate\n     * transaction ordering. One possible solution to mitigate this race\n     * condition is to first reduce the spender's allowance to 0 and set the\n     * desired value afterwards:\n     * https://github.com/ethereum/EIPs/issues/20#issuecomment-263524729\n     *\n     * Emits an {Approval} event.\n     */\n    function approve(address spender, uint256 amount) external returns (bool);\n\n    /**\n     * @dev Moves `amount` tokens from `from` to `to` using the\n     * allowance mechanism. `amount` is then deducted from the caller's\n     * allowance.\n     *\n     * Returns a boolean value indicating whether the operation succeeded.\n     *\n     * Emits a {Transfer} event.\n     */\n    function transferFrom(\n        address from,\n        address to,\n        uint256 amount\n    ) external returns (bool);\n\n    /**\n     * @dev Emitted when `value` tokens are moved from one account (`from`) to\n     * another (`to`).\n     *\n     * Note that `value` may be zero.\n     */\n    event Transfer(address indexed from, address indexed to, uint256 value);\n\n    /**\n     * @dev Emitted when the allowance of a `spender` for an `owner` is set by\n     * a call to {approve}. `value` is the new allowance.\n     */\n    event Approval(address indexed owner, address indexed spender, uint256 value);\n}\n"
    },
    "@openzeppelin/contracts/utils/Address.sol": {
      "content": "// SPDX-License-Identifier: MIT\n// OpenZeppelin Contracts (last updated v4.5.0) (utils/Address.sol)\n\npragma solidity ^0.8.1;\n\n/**\n * @dev Collection of functions related to the address type\n */\nlibrary Address {\n    /**\n     * @dev Returns true if `account` is a contract.\n     *\n     * [IMPORTANT]\n     * ====\n     * It is unsafe to assume that an address for which this function returns\n     * false is an externally-owned account (EOA) and not a contract.\n     *\n     * Among others, `isContract` will return false for the following\n     * types of addresses:\n     *\n     *  - an externally-owned account\n     *  - a contract in construction\n     *  - an address where a contract will be created\n     *  - an address where a contract lived, but was destroyed\n     * ====\n     *\n     * [IMPORTANT]\n     * ====\n     * You shouldn't rely on `isContract` to protect against flash loan attacks!\n     *\n     * Preventing calls from contracts is highly discouraged. It breaks composability, breaks support for smart wallets\n     * like Gnosis Safe, and does not provide security since it can be circumvented by calling from a contract\n     * constructor.\n     * ====\n     */\n    function isContract(address account) internal view returns (bool) {\n        // This method relies on extcodesize/address.code.length, which returns 0\n        // for contracts in construction, since the code is only stored at the end\n        // of the constructor execution.\n\n        return account.code.length > 0;\n    }\n\n    /**\n     * @dev Replacement for Solidity's `transfer`: sends `amount` wei to\n     * `recipient`, forwarding all available gas and reverting on errors.\n     *\n     * https://eips.ethereum.org/EIPS/eip-1884[EIP1884] increases the gas cost\n     * of certain opcodes, possibly making contracts go over the 2300 gas limit\n     * imposed by `transfer`, making them unable to receive funds via\n     * `transfer`. {sendValue} removes this limitation.\n     *\n     * https://diligence.consensys.net/posts/2019/09/stop-using-soliditys-transfer-now/[Learn more].\n     *\n     * IMPORTANT: because control is transferred to `recipient`, care must be\n     * taken to not create reentrancy vulnerabilities. Consider using\n     * {ReentrancyGuard} or the\n     * https://solidity.readthedocs.io/en/v0.5.11/security-considerations.html#use-the-checks-effects-interactions-pattern[checks-effects-interactions pattern].\n     */\n    function sendValue(address payable recipient, uint256 amount) internal {\n        require(address(this).balance >= amount, \"Address: insufficient balance\");\n\n        (bool success, ) = recipient.call{value: amount}(\"\");\n        require(success, \"Address: unable to send value, recipient may have reverted\");\n    }\n\n    /**\n     * @dev Performs a Solidity function call using a low level `call`. A\n     * plain `call` is an unsafe replacement for a function call: use this\n     * function instead.\n     *\n     * If `target` reverts with a revert reason, it is bubbled up by this\n     * function (like regular Solidity function calls).\n     *\n     * Returns the raw returned data. To convert to the expected return value,\n     * use https://solidity.readthedocs.io/en/latest/units-and-global-variables.html?highlight=abi.decode#abi-encoding-and-decoding-functions[`abi.decode`].\n     *\n     * Requirements:\n     *\n     * - `target` must be a contract.\n     * - calling `target` with `data` must not revert.\n     *\n     * _Available since v3.1._\n     */\n    function functionCall(address target, bytes memory data) internal returns (bytes memory) {\n        return functionCall(target, data, \"Address: low-level call failed\");\n    }\n\n    /**\n     * @dev Same as {xref-Address-functionCall-address-bytes-}[`functionCall`], but with\n     * `errorMessage` as a fallback revert reason when `target` reverts.\n     *\n     * _Available since v3.1._\n     */\n    function functionCall(\n        address target,\n        bytes memory data,\n        string memory errorMessage\n    ) internal returns (bytes memory) {\n        return functionCallWithValue(target, data, 0, errorMessage);\n    }\n\n    /**\n     * @dev Same as {xref-Address-functionCall-address-bytes-}[`functionCall`],\n     * but also transferring `value` wei to `target`.\n     *\n     * Requirements:\n     *\n     * - the calling contract must have an ETH balance of at least `value`.\n     * - the called Solidity function must be `payable`.\n     *\n     * _Available since v3.1._\n     */\n    function functionCallWithValue(\n        address target,\n        bytes memory data,\n        uint256 value\n    ) internal returns (bytes memory) {\n        return functionCallWithValue(target, data, value, \"Address: low-level call with value failed\");\n    }\n\n    /**\n     * @dev Same as {xref-Address-functionCallWithValue-address-bytes-uint256-}[`functionCallWithValue`], but\n     * with `errorMessage` as a fallback revert reason when `target` reverts.\n     *\n     * _Available since v3.1._\n     */\n    function functionCallWithValue(\n        address target,\n        bytes memory data,\n        uint256 value,\n        string memory errorMessage\n    ) internal returns (bytes memory) {\n        require(address(this).balance >= value, \"Address: insufficient balance for call\");\n        require(isContract(target), \"Address: call to non-contract\");\n\n        (bool success, bytes memory returndata) = target.call{value: value}(data);\n        return verifyCallResult(success, returndata, errorMessage);\n    }\n\n    /**\n     * @dev Same as {xref-Address-functionCall-address-bytes-}[`functionCall`],\n     * but performing a static call.\n     *\n     * _Available since v3.3._\n     */\n    function functionStaticCall(address target, bytes memory data) internal view returns (bytes memory) {\n        return functionStaticCall(target, data, \"Address: low-level static call failed\");\n    }\n\n    /**\n     * @dev Same as {xref-Address-functionCall-address-bytes-string-}[`functionCall`],\n     * but performing a static call.\n     *\n     * _Available since v3.3._\n     */\n    function functionStaticCall(\n        address target,\n        bytes memory data,\n        string memory errorMessage\n    ) internal view returns (bytes memory) {\n        require(isContract(target), \"Address: static call to non-contract\");\n\n        (bool success, bytes memory returndata) = target.staticcall(data);\n        return verifyCallResult(success, returndata, errorMessage);\n    }\n\n    /**\n     * @dev Same as {xref-Address-functionCall-address-bytes-}[`functionCall`],\n     * but performing a delegate call.\n     *\n     * _Available since v3.4._\n     */\n    function functionDelegateCall(address target, bytes memory data) internal returns (bytes memory) {\n        return functionDelegateCall(target, data, \"Address: low-level delegate call failed\");\n    }\n\n    /**\n     * @dev Same as {xref-Address-functionCall-address-bytes-string-}[`functionCall`],\n     * but performing a delegate call.\n     *\n     * _Available since v3.4._\n     */\n    function functionDelegateCall(\n        address target,\n        bytes memory data,\n        string memory errorMessage\n    ) internal returns (bytes memory) {\n        require(isContract(target), \"Address: delegate call to non-contract\");\n\n        (bool success, bytes memory returndata) = target.delegatecall(data);\n        return verifyCallResult(success, returndata, errorMessage);\n    }\n\n    /**\n     * @dev Tool to verifies that a low level call was successful, and revert if it wasn't, either by bubbling the\n     * revert reason using the provided one.\n     *\n     * _Available since v4.3._\n     */\n    function verifyCallResult(\n        bool success,\n        bytes memory returndata,\n        string memory errorMessage\n    ) internal pure returns (bytes memory) {\n        if (success) {\n            return returndata;\n        } else {\n            // Look for revert reason and bubble it up if present\n            if (returndata.length > 0) {\n                // The easiest way to bubble the revert reason is using memory via assembly\n\n                assembly {\n                    let returndata_size := mload(returndata)\n                    revert(add(32, returndata), returndata_size)\n                }\n            } else {\n                revert(errorMessage);\n            }\n        }\n    }\n}\n"
    },
    "contracts/facets/ERC721Facet.sol": {
      "content": "//SPDX-License-Identifier: Unlicense\npragma solidity 0.8.10;\nimport \"@openzeppelin/contracts/interfaces/IERC721Metadata.sol\";\nimport \"./../libraries/LibAppStorage.sol\";\nimport \"@openzeppelin/contracts/utils/Strings.sol\";\nimport \"@openzeppelin/contracts/utils/Address.sol\";\nimport \"@openzeppelin/contracts/utils/Context.sol\";\nimport \"@openzeppelin/contracts/interfaces/IERC721Receiver.sol\";\nimport \"./AccessControlFacet.sol\";\nimport \"./../libraries/UsingEIP712.sol\";\nimport \"@openzeppelin/contracts/interfaces/IERC20.sol\";\nimport \"@openzeppelin/contracts/token/ERC20/utils/SafeERC20.sol\";\nimport \"@openzeppelin/contracts/utils/math/SafeMath.sol\";\n\ncontract ERC721 is Modifiers {\n    using Address for address;\n    using Strings for uint256;\n    event Transfer(\n        address indexed from,\n        address indexed to,\n        uint256 indexed tokenId\n    );\n\n    event Approval(\n        address indexed owner,\n        address indexed approved,\n        uint256 indexed tokenId\n    );\n\n    event ApprovalForAll(\n        address indexed owner,\n        address indexed operator,\n        bool approved\n    );\n\n    function totalSupply() external view returns (uint256) {\n        return s.counter;\n    }\n\n    function name() external view returns (string memory) {\n        return s.name;\n    }\n\n    function symbol() external view returns (string memory) {\n        return s.symbol;\n    }\n\n    function tokenURI(uint256 tokenId) external view returns (string memory) {\n        require(\n            _exists(tokenId),\n            \"ERC721URIStorage: URI query for nonexistent token\"\n        );\n\n        string memory _tokenURI = s.erc721TokenURIs[tokenId];\n        string memory base = _baseURI();\n\n        // If there is no base URI, return the token URI.\n        if (bytes(base).length == 0) {\n            return _tokenURI;\n        }\n        // If both are set, concatenate the baseURI and tokenURI (via abi.encodePacked).\n        if (bytes(_tokenURI).length > 0) {\n            return string(abi.encodePacked(base, _tokenURI));\n        }\n        return _tokenURI;\n    }\n\n    function balanceOf(address owner) external view returns (uint256) {\n        require(\n            owner != address(0),\n            \"ERC721: balance query for the zero address\"\n        );\n        return s.erc721Balances[owner];\n    }\n\n    function ownerOf(uint256 tokenId) public view returns (address) {\n        address owner = s.erc721Owners[tokenId];\n        require(\n            owner != address(0),\n            \"ERC721: owner query for nonexistent token\"\n        );\n        return owner;\n    }\n\n    function approve(address to, uint256 tokenId) public virtual {\n        address owner = ownerOf(tokenId);\n        require(to != owner, \"ERC721: approval to current owner\");\n\n        require(\n            _msgSender() == owner || isApprovedForAll(owner, _msgSender()),\n            \"ERC721: approve caller is not owner nor approved for all\"\n        );\n\n        _approve(to, tokenId);\n    }\n\n    function getApproved(uint256 tokenId)\n        public\n        view\n        virtual\n        returns (address)\n    {\n        require(\n            _exists(tokenId),\n            \"ERC721: approved query for nonexistent token\"\n        );\n\n        return s.erc721TokenApprovals[tokenId];\n    }\n\n    function setApprovalForAll(address operator, bool approved) public virtual {\n        _setApprovalForAll(_msgSender(), operator, approved);\n    }\n\n    function isApprovedForAll(address owner, address operator)\n        public\n        view\n        virtual\n        returns (bool)\n    {\n        return s.erc721OperatorApprovals[owner][operator];\n    }\n\n    function transferFrom(\n        address from,\n        address to,\n        uint256 tokenId\n    ) public virtual {\n        //solhint-disable-next-line max-line-length\n        require(\n            _isApprovedOrOwner(_msgSender(), tokenId),\n            \"ERC721: transfer caller is not owner nor approved\"\n        );\n\n        _transfer(from, to, tokenId);\n    }\n\n    function safeTransferFrom(\n        address from,\n        address to,\n        uint256 tokenId\n    ) public virtual {\n        safeTransferFrom(from, to, tokenId, \"\");\n    }\n\n    function safeTransferFrom(\n        address from,\n        address to,\n        uint256 tokenId,\n        bytes memory _data\n    ) public virtual {\n        require(\n            _isApprovedOrOwner(_msgSender(), tokenId),\n            \"ERC721: transfer caller is not owner nor approved\"\n        );\n        _safeTransfer(from, to, tokenId, _data);\n    }\n\n    function _safeTransfer(\n        address from,\n        address to,\n        uint256 tokenId,\n        bytes memory _data\n    ) internal virtual {\n        _transfer(from, to, tokenId);\n        require(\n            _checkOnERC721Received(from, to, tokenId, _data),\n            \"ERC721: transfer to non ERC721Receiver implementer\"\n        );\n    }\n\n    function _baseURI() internal view virtual returns (string memory) {\n        return \"\";\n    }\n\n    function _exists(uint256 tokenId) internal view virtual returns (bool) {\n        return s.erc721Owners[tokenId] != address(0);\n    }\n\n    function _isApprovedOrOwner(address spender, uint256 tokenId)\n        internal\n        view\n        virtual\n        returns (bool)\n    {\n        require(\n            _exists(tokenId),\n            \"ERC721: operator query for nonexistent token\"\n        );\n        address owner = ownerOf(tokenId);\n        return (spender == owner ||\n            getApproved(tokenId) == spender ||\n            isApprovedForAll(owner, spender));\n    }\n\n    function _safeMint(address to, uint256 tokenId) internal virtual {\n        _safeMint(to, tokenId, \"\");\n    }\n\n    function _safeMint(\n        address to,\n        uint256 tokenId,\n        bytes memory _data\n    ) internal virtual {\n        _mint(to, tokenId);\n        require(\n            _checkOnERC721Received(address(0), to, tokenId, _data),\n            \"ERC721: transfer to non ERC721Receiver implementer\"\n        );\n    }\n\n    function _mint(address to, uint256 tokenId) internal virtual {\n        require(to != address(0), \"ERC721: mint to the zero address\");\n        require(!_exists(tokenId), \"ERC721: token already minted\");\n\n        _beforeTokenTransfer(address(0), to, tokenId);\n\n        s.erc721Balances[to] += 1;\n        s.erc721Owners[tokenId] = to;\n\n        emit Transfer(address(0), to, tokenId);\n\n        _afterTokenTransfer(address(0), to, tokenId);\n    }\n\n    function _burn(uint256 tokenId) internal virtual {\n        address owner = ownerOf(tokenId);\n\n        _beforeTokenTransfer(owner, address(0), tokenId);\n\n        // Clear approvals\n        _approve(address(0), tokenId);\n\n        s.erc721Balances[owner] -= 1;\n\n        delete s.erc721Owners[tokenId];\n\n        emit Transfer(owner, address(0), tokenId);\n\n        _afterTokenTransfer(owner, address(0), tokenId);\n    }\n\n    function _transfer(\n        address from,\n        address to,\n        uint256 tokenId\n    ) internal virtual {\n        require(\n            ownerOf(tokenId) == from,\n            \"ERC721: transfer from incorrect owner\"\n        );\n        require(to != address(0), \"ERC721: transfer to the zero address\");\n\n        _beforeTokenTransfer(from, to, tokenId);\n\n        // Clear approvals from the previous owner\n        _approve(address(0), tokenId);\n\n        s.erc721Balances[from] -= 1;\n        s.erc721Balances[to] += 1;\n        s.erc721Owners[tokenId] = to;\n\n        emit Transfer(from, to, tokenId);\n\n        _afterTokenTransfer(from, to, tokenId);\n    }\n\n    function _approve(address to, uint256 tokenId) internal virtual {\n        s.erc721TokenApprovals[tokenId] = to;\n        emit Approval(ownerOf(tokenId), to, tokenId);\n    }\n\n    function _setApprovalForAll(\n        address owner,\n        address operator,\n        bool approved\n    ) internal virtual {\n        require(owner != operator, \"ERC721: approve to caller\");\n        s.erc721OperatorApprovals[owner][operator] = approved;\n        emit ApprovalForAll(owner, operator, approved);\n    }\n\n    function _checkOnERC721Received(\n        address from,\n        address to,\n        uint256 tokenId,\n        bytes memory _data\n    ) private returns (bool) {\n        if (to.isContract()) {\n            try\n                IERC721Receiver(to).onERC721Received(\n                    _msgSender(),\n                    from,\n                    tokenId,\n                    _data\n                )\n            returns (bytes4 retval) {\n                return retval == IERC721Receiver.onERC721Received.selector;\n            } catch (bytes memory reason) {\n                if (reason.length == 0) {\n                    revert(\n                        \"ERC721: transfer to non ERC721Receiver implementer\"\n                    );\n                } else {\n                    assembly {\n                        revert(add(32, reason), mload(reason))\n                    }\n                }\n            }\n        } else {\n            return true;\n        }\n    }\n\n    function _setTokenURI(uint256 tokenId, string memory _tokenURI)\n        internal\n        virtual\n    {\n        require(\n            _exists(tokenId),\n            \"ERC721URIStorage: URI set of nonexistent token\"\n        );\n        s.erc721TokenURIs[tokenId] = _tokenURI;\n    }\n\n    function _beforeTokenTransfer(\n        address from,\n        address to,\n        uint256 tokenId\n    ) internal virtual {\n        require(\n            s.rentals[tokenId].owner == address(0) &&\n                s.rentals[tokenId].renter == address(0)\n        );\n    }\n\n    function _afterTokenTransfer(\n        address from,\n        address to,\n        uint256 tokenId\n    ) internal virtual {}\n}\n\ncontract ERC721Facet is UsingEIP712, ERC721 {\n    using SafeERC20 for IERC20;\n    using SafeMath for uint256;\n\n    function mint(\n        address to,\n        uint256 tokenId,\n        string memory _tokenURI\n    ) external onlyRole(MINTER_ROLE) {\n        ++s.counter;\n        _safeMint(to, tokenId);\n        _setTokenURI(tokenId, _tokenURI);\n    }\n\n    function mintWithPermit(MintingPermission calldata permission)\n        external\n        returns (uint256)\n    {\n        // CHECKS\n        address signer = _verifyMintingPermission(permission);\n        require(s.roles[MINTER_ROLE].members[signer], \"Invalid signature\");\n        require(\n            permission.currency != address(0) &&\n                s.supportsCurrency[permission.currency],\n            \"Currency not supported\"\n        );\n\n        require(\n            IERC20(permission.currency).allowance(msg.sender, address(this)) >=\n                permission.mintingPrice,\n            \"Allowance not enough\"\n        );\n        IERC20 currency = IERC20(permission.currency);\n\n        // EFFECTS\n        uint256 before = s.erc20Pending[address(currency)][s.feeCollector];\n        s.erc20Pending[address(currency)][s.feeCollector] = before.add(\n            permission.mintingPrice\n        );\n        ++s.counter;\n        _safeMint(signer, permission.tokenId);\n        _setTokenURI(permission.tokenId, permission.uri);\n        _transfer(signer, permission.to, permission.tokenId);\n\n        // INTERACTIONS\n        currency.safeTransferFrom(\n            msg.sender,\n            address(this),\n            permission.mintingPrice\n        );\n        assert(ownerOf(permission.tokenId) == permission.to);\n        return permission.tokenId;\n    }\n\n    function mintPermitWithETH(MintingPermission calldata permission)\n        external\n        payable\n        returns (uint256)\n    {\n        address signer = _verifyMintingPermission(permission);\n        require(s.roles[MINTER_ROLE].members[signer], \"Invalid signature\");\n        require(\n            permission.currency == address(0) && s.supportsEther,\n            \"Currency not supported\"\n        );\n\n        require(msg.value >= permission.mintingPrice, \"Value not enough\");\n\n        // EFFECTS\n        ++s.counter;\n        uint256 before = s.ethPending[s.feeCollector];\n        s.ethPending[s.feeCollector] = before.add(permission.mintingPrice);\n        _safeMint(signer, permission.tokenId);\n        _setTokenURI(permission.tokenId, permission.uri);\n        _transfer(signer, permission.to, permission.tokenId);\n\n        // INTERACTIONS\n        if (msg.value > permission.mintingPrice) {\n            s.ethPending[msg.sender] = s.ethPending[msg.sender].add(\n                msg.value.sub(permission.mintingPrice)\n            );\n        }\n\n        assert(ownerOf(permission.tokenId) == permission.to);\n        return permission.tokenId;\n    }\n\n    function _verifyMintingPermission(MintingPermission calldata permission)\n        internal\n        view\n        returns (address)\n    {\n        bytes32 digest = _hashMintingPermission(permission);\n        return ECDSA.recover(digest, permission.signature);\n    }\n\n    function _hashMintingPermission(MintingPermission calldata permission)\n        internal\n        view\n        returns (bytes32)\n    {\n        return\n            _hashTypedDataV4(\n                keccak256(\n                    abi.encode(\n                        MINTING_PERMISSION_TYPEHASH,\n                        permission.tokenId,\n                        permission.to,\n                        permission.currency,\n                        permission.mintingPrice,\n                        keccak256(bytes(permission.uri))\n                    )\n                )\n            );\n    }\n}\n"
    },
    "@openzeppelin/contracts/interfaces/IERC721Metadata.sol": {
      "content": "// SPDX-License-Identifier: MIT\n// OpenZeppelin Contracts v4.4.1 (interfaces/IERC721Metadata.sol)\n\npragma solidity ^0.8.0;\n\nimport \"../token/ERC721/extensions/IERC721Metadata.sol\";\n"
    },
    "@openzeppelin/contracts/interfaces/IERC721Receiver.sol": {
      "content": "// SPDX-License-Identifier: MIT\n// OpenZeppelin Contracts v4.4.1 (interfaces/IERC721Receiver.sol)\n\npragma solidity ^0.8.0;\n\nimport \"../token/ERC721/IERC721Receiver.sol\";\n"
    },
    "contracts/libraries/UsingEIP712.sol": {
      "content": "//SPDX-License-Identifier: Unlicense\npragma solidity 0.8.10;\nimport \"./../libraries/LibAppStorage.sol\";\nimport \"@openzeppelin/contracts/utils/cryptography/ECDSA.sol\";\n\ncontract UsingEIP712 is Modifiers {\n    function _domainSeparatorV4() internal view returns (bytes32) {\n        if (\n            address(this) == s._CACHED_THIS &&\n            block.chainid == s._CACHED_CHAIN_ID\n        ) {\n            return s._CACHED_DOMAIN_SEPARATOR;\n        } else {\n            return\n                _buildDomainSeparator(\n                    s._TYPE_HASH,\n                    s._HASHED_NAME,\n                    s._HASHED_VERSION\n                );\n        }\n    }\n\n    function _buildDomainSeparator(\n        bytes32 typeHash,\n        bytes32 nameHash,\n        bytes32 versionHash\n    ) internal view returns (bytes32) {\n        return\n            keccak256(\n                abi.encode(\n                    typeHash,\n                    nameHash,\n                    versionHash,\n                    block.chainid,\n                    address(this)\n                )\n            );\n    }\n\n    function _hashTypedDataV4(bytes32 structHash)\n        internal\n        view\n        returns (bytes32)\n    {\n        return ECDSA.toTypedDataHash(_domainSeparatorV4(), structHash);\n    }\n}\n"
    },
    "@openzeppelin/contracts/token/ERC721/extensions/IERC721Metadata.sol": {
      "content": "// SPDX-License-Identifier: MIT\n// OpenZeppelin Contracts v4.4.1 (token/ERC721/extensions/IERC721Metadata.sol)\n\npragma solidity ^0.8.0;\n\nimport \"../IERC721.sol\";\n\n/**\n * @title ERC-721 Non-Fungible Token Standard, optional metadata extension\n * @dev See https://eips.ethereum.org/EIPS/eip-721\n */\ninterface IERC721Metadata is IERC721 {\n    /**\n     * @dev Returns the token collection name.\n     */\n    function name() external view returns (string memory);\n\n    /**\n     * @dev Returns the token collection symbol.\n     */\n    function symbol() external view returns (string memory);\n\n    /**\n     * @dev Returns the Uniform Resource Identifier (URI) for `tokenId` token.\n     */\n    function tokenURI(uint256 tokenId) external view returns (string memory);\n}\n"
    },
    "@openzeppelin/contracts/token/ERC721/IERC721.sol": {
      "content": "// SPDX-License-Identifier: MIT\n// OpenZeppelin Contracts v4.4.1 (token/ERC721/IERC721.sol)\n\npragma solidity ^0.8.0;\n\nimport \"../../utils/introspection/IERC165.sol\";\n\n/**\n * @dev Required interface of an ERC721 compliant contract.\n */\ninterface IERC721 is IERC165 {\n    /**\n     * @dev Emitted when `tokenId` token is transferred from `from` to `to`.\n     */\n    event Transfer(address indexed from, address indexed to, uint256 indexed tokenId);\n\n    /**\n     * @dev Emitted when `owner` enables `approved` to manage the `tokenId` token.\n     */\n    event Approval(address indexed owner, address indexed approved, uint256 indexed tokenId);\n\n    /**\n     * @dev Emitted when `owner` enables or disables (`approved`) `operator` to manage all of its assets.\n     */\n    event ApprovalForAll(address indexed owner, address indexed operator, bool approved);\n\n    /**\n     * @dev Returns the number of tokens in ``owner``'s account.\n     */\n    function balanceOf(address owner) external view returns (uint256 balance);\n\n    /**\n     * @dev Returns the owner of the `tokenId` token.\n     *\n     * Requirements:\n     *\n     * - `tokenId` must exist.\n     */\n    function ownerOf(uint256 tokenId) external view returns (address owner);\n\n    /**\n     * @dev Safely transfers `tokenId` token from `from` to `to`, checking first that contract recipients\n     * are aware of the ERC721 protocol to prevent tokens from being forever locked.\n     *\n     * Requirements:\n     *\n     * - `from` cannot be the zero address.\n     * - `to` cannot be the zero address.\n     * - `tokenId` token must exist and be owned by `from`.\n     * - If the caller is not `from`, it must be have been allowed to move this token by either {approve} or {setApprovalForAll}.\n     * - If `to` refers to a smart contract, it must implement {IERC721Receiver-onERC721Received}, which is called upon a safe transfer.\n     *\n     * Emits a {Transfer} event.\n     */\n    function safeTransferFrom(\n        address from,\n        address to,\n        uint256 tokenId\n    ) external;\n\n    /**\n     * @dev Transfers `tokenId` token from `from` to `to`.\n     *\n     * WARNING: Usage of this method is discouraged, use {safeTransferFrom} whenever possible.\n     *\n     * Requirements:\n     *\n     * - `from` cannot be the zero address.\n     * - `to` cannot be the zero address.\n     * - `tokenId` token must be owned by `from`.\n     * - If the caller is not `from`, it must be approved to move this token by either {approve} or {setApprovalForAll}.\n     *\n     * Emits a {Transfer} event.\n     */\n    function transferFrom(\n        address from,\n        address to,\n        uint256 tokenId\n    ) external;\n\n    /**\n     * @dev Gives permission to `to` to transfer `tokenId` token to another account.\n     * The approval is cleared when the token is transferred.\n     *\n     * Only a single account can be approved at a time, so approving the zero address clears previous approvals.\n     *\n     * Requirements:\n     *\n     * - The caller must own the token or be an approved operator.\n     * - `tokenId` must exist.\n     *\n     * Emits an {Approval} event.\n     */\n    function approve(address to, uint256 tokenId) external;\n\n    /**\n     * @dev Returns the account approved for `tokenId` token.\n     *\n     * Requirements:\n     *\n     * - `tokenId` must exist.\n     */\n    function getApproved(uint256 tokenId) external view returns (address operator);\n\n    /**\n     * @dev Approve or remove `operator` as an operator for the caller.\n     * Operators can call {transferFrom} or {safeTransferFrom} for any token owned by the caller.\n     *\n     * Requirements:\n     *\n     * - The `operator` cannot be the caller.\n     *\n     * Emits an {ApprovalForAll} event.\n     */\n    function setApprovalForAll(address operator, bool _approved) external;\n\n    /**\n     * @dev Returns if the `operator` is allowed to manage all of the assets of `owner`.\n     *\n     * See {setApprovalForAll}\n     */\n    function isApprovedForAll(address owner, address operator) external view returns (bool);\n\n    /**\n     * @dev Safely transfers `tokenId` token from `from` to `to`.\n     *\n     * Requirements:\n     *\n     * - `from` cannot be the zero address.\n     * - `to` cannot be the zero address.\n     * - `tokenId` token must exist and be owned by `from`.\n     * - If the caller is not `from`, it must be approved to move this token by either {approve} or {setApprovalForAll}.\n     * - If `to` refers to a smart contract, it must implement {IERC721Receiver-onERC721Received}, which is called upon a safe transfer.\n     *\n     * Emits a {Transfer} event.\n     */\n    function safeTransferFrom(\n        address from,\n        address to,\n        uint256 tokenId,\n        bytes calldata data\n    ) external;\n}\n"
    },
    "@openzeppelin/contracts/utils/introspection/IERC165.sol": {
      "content": "// SPDX-License-Identifier: MIT\n// OpenZeppelin Contracts v4.4.1 (utils/introspection/IERC165.sol)\n\npragma solidity ^0.8.0;\n\n/**\n * @dev Interface of the ERC165 standard, as defined in the\n * https://eips.ethereum.org/EIPS/eip-165[EIP].\n *\n * Implementers can declare support of contract interfaces, which can then be\n * queried by others ({ERC165Checker}).\n *\n * For an implementation, see {ERC165}.\n */\ninterface IERC165 {\n    /**\n     * @dev Returns true if this contract implements the interface defined by\n     * `interfaceId`. See the corresponding\n     * https://eips.ethereum.org/EIPS/eip-165#how-interfaces-are-identified[EIP section]\n     * to learn more about how these ids are created.\n     *\n     * This function call must use less than 30 000 gas.\n     */\n    function supportsInterface(bytes4 interfaceId) external view returns (bool);\n}\n"
    },
    "@openzeppelin/contracts/token/ERC721/IERC721Receiver.sol": {
      "content": "// SPDX-License-Identifier: MIT\n// OpenZeppelin Contracts v4.4.1 (token/ERC721/IERC721Receiver.sol)\n\npragma solidity ^0.8.0;\n\n/**\n * @title ERC721 token receiver interface\n * @dev Interface for any contract that wants to support safeTransfers\n * from ERC721 asset contracts.\n */\ninterface IERC721Receiver {\n    /**\n     * @dev Whenever an {IERC721} `tokenId` token is transferred to this contract via {IERC721-safeTransferFrom}\n     * by `operator` from `from`, this function is called.\n     *\n     * It must return its Solidity selector to confirm the token transfer.\n     * If any other value is returned or the interface is not implemented by the recipient, the transfer will be reverted.\n     *\n     * The selector can be obtained in Solidity with `IERC721.onERC721Received.selector`.\n     */\n    function onERC721Received(\n        address operator,\n        address from,\n        uint256 tokenId,\n        bytes calldata data\n    ) external returns (bytes4);\n}\n"
    },
    "@openzeppelin/contracts/utils/cryptography/ECDSA.sol": {
      "content": "// SPDX-License-Identifier: MIT\n// OpenZeppelin Contracts (last updated v4.5.0) (utils/cryptography/ECDSA.sol)\n\npragma solidity ^0.8.0;\n\nimport \"../Strings.sol\";\n\n/**\n * @dev Elliptic Curve Digital Signature Algorithm (ECDSA) operations.\n *\n * These functions can be used to verify that a message was signed by the holder\n * of the private keys of a given address.\n */\nlibrary ECDSA {\n    enum RecoverError {\n        NoError,\n        InvalidSignature,\n        InvalidSignatureLength,\n        InvalidSignatureS,\n        InvalidSignatureV\n    }\n\n    function _throwError(RecoverError error) private pure {\n        if (error == RecoverError.NoError) {\n            return; // no error: do nothing\n        } else if (error == RecoverError.InvalidSignature) {\n            revert(\"ECDSA: invalid signature\");\n        } else if (error == RecoverError.InvalidSignatureLength) {\n            revert(\"ECDSA: invalid signature length\");\n        } else if (error == RecoverError.InvalidSignatureS) {\n            revert(\"ECDSA: invalid signature 's' value\");\n        } else if (error == RecoverError.InvalidSignatureV) {\n            revert(\"ECDSA: invalid signature 'v' value\");\n        }\n    }\n\n    /**\n     * @dev Returns the address that signed a hashed message (`hash`) with\n     * `signature` or error string. This address can then be used for verification purposes.\n     *\n     * The `ecrecover` EVM opcode allows for malleable (non-unique) signatures:\n     * this function rejects them by requiring the `s` value to be in the lower\n     * half order, and the `v` value to be either 27 or 28.\n     *\n     * IMPORTANT: `hash` _must_ be the result of a hash operation for the\n     * verification to be secure: it is possible to craft signatures that\n     * recover to arbitrary addresses for non-hashed data. A safe way to ensure\n     * this is by receiving a hash of the original message (which may otherwise\n     * be too long), and then calling {toEthSignedMessageHash} on it.\n     *\n     * Documentation for signature generation:\n     * - with https://web3js.readthedocs.io/en/v1.3.4/web3-eth-accounts.html#sign[Web3.js]\n     * - with https://docs.ethers.io/v5/api/signer/#Signer-signMessage[ethers]\n     *\n     * _Available since v4.3._\n     */\n    function tryRecover(bytes32 hash, bytes memory signature) internal pure returns (address, RecoverError) {\n        // Check the signature length\n        // - case 65: r,s,v signature (standard)\n        // - case 64: r,vs signature (cf https://eips.ethereum.org/EIPS/eip-2098) _Available since v4.1._\n        if (signature.length == 65) {\n            bytes32 r;\n            bytes32 s;\n            uint8 v;\n            // ecrecover takes the signature parameters, and the only way to get them\n            // currently is to use assembly.\n            assembly {\n                r := mload(add(signature, 0x20))\n                s := mload(add(signature, 0x40))\n                v := byte(0, mload(add(signature, 0x60)))\n            }\n            return tryRecover(hash, v, r, s);\n        } else if (signature.length == 64) {\n            bytes32 r;\n            bytes32 vs;\n            // ecrecover takes the signature parameters, and the only way to get them\n            // currently is to use assembly.\n            assembly {\n                r := mload(add(signature, 0x20))\n                vs := mload(add(signature, 0x40))\n            }\n            return tryRecover(hash, r, vs);\n        } else {\n            return (address(0), RecoverError.InvalidSignatureLength);\n        }\n    }\n\n    /**\n     * @dev Returns the address that signed a hashed message (`hash`) with\n     * `signature`. This address can then be used for verification purposes.\n     *\n     * The `ecrecover` EVM opcode allows for malleable (non-unique) signatures:\n     * this function rejects them by requiring the `s` value to be in the lower\n     * half order, and the `v` value to be either 27 or 28.\n     *\n     * IMPORTANT: `hash` _must_ be the result of a hash operation for the\n     * verification to be secure: it is possible to craft signatures that\n     * recover to arbitrary addresses for non-hashed data. A safe way to ensure\n     * this is by receiving a hash of the original message (which may otherwise\n     * be too long), and then calling {toEthSignedMessageHash} on it.\n     */\n    function recover(bytes32 hash, bytes memory signature) internal pure returns (address) {\n        (address recovered, RecoverError error) = tryRecover(hash, signature);\n        _throwError(error);\n        return recovered;\n    }\n\n    /**\n     * @dev Overload of {ECDSA-tryRecover} that receives the `r` and `vs` short-signature fields separately.\n     *\n     * See https://eips.ethereum.org/EIPS/eip-2098[EIP-2098 short signatures]\n     *\n     * _Available since v4.3._\n     */\n    function tryRecover(\n        bytes32 hash,\n        bytes32 r,\n        bytes32 vs\n    ) internal pure returns (address, RecoverError) {\n        bytes32 s = vs & bytes32(0x7fffffffffffffffffffffffffffffffffffffffffffffffffffffffffffffff);\n        uint8 v = uint8((uint256(vs) >> 255) + 27);\n        return tryRecover(hash, v, r, s);\n    }\n\n    /**\n     * @dev Overload of {ECDSA-recover} that receives the `r and `vs` short-signature fields separately.\n     *\n     * _Available since v4.2._\n     */\n    function recover(\n        bytes32 hash,\n        bytes32 r,\n        bytes32 vs\n    ) internal pure returns (address) {\n        (address recovered, RecoverError error) = tryRecover(hash, r, vs);\n        _throwError(error);\n        return recovered;\n    }\n\n    /**\n     * @dev Overload of {ECDSA-tryRecover} that receives the `v`,\n     * `r` and `s` signature fields separately.\n     *\n     * _Available since v4.3._\n     */\n    function tryRecover(\n        bytes32 hash,\n        uint8 v,\n        bytes32 r,\n        bytes32 s\n    ) internal pure returns (address, RecoverError) {\n        // EIP-2 still allows signature malleability for ecrecover(). Remove this possibility and make the signature\n        // unique. Appendix F in the Ethereum Yellow paper (https://ethereum.github.io/yellowpaper/paper.pdf), defines\n        // the valid range for s in (301): 0 < s < secp256k1n ÷ 2 + 1, and for v in (302): v ∈ {27, 28}. Most\n        // signatures from current libraries generate a unique signature with an s-value in the lower half order.\n        //\n        // If your library generates malleable signatures, such as s-values in the upper range, calculate a new s-value\n        // with 0xFFFFFFFFFFFFFFFFFFFFFFFFFFFFFFFEBAAEDCE6AF48A03BBFD25E8CD0364141 - s1 and flip v from 27 to 28 or\n        // vice versa. If your library also generates signatures with 0/1 for v instead 27/28, add 27 to v to accept\n        // these malleable signatures as well.\n        if (uint256(s) > 0x7FFFFFFFFFFFFFFFFFFFFFFFFFFFFFFF5D576E7357A4501DDFE92F46681B20A0) {\n            return (address(0), RecoverError.InvalidSignatureS);\n        }\n        if (v != 27 && v != 28) {\n            return (address(0), RecoverError.InvalidSignatureV);\n        }\n\n        // If the signature is valid (and not malleable), return the signer address\n        address signer = ecrecover(hash, v, r, s);\n        if (signer == address(0)) {\n            return (address(0), RecoverError.InvalidSignature);\n        }\n\n        return (signer, RecoverError.NoError);\n    }\n\n    /**\n     * @dev Overload of {ECDSA-recover} that receives the `v`,\n     * `r` and `s` signature fields separately.\n     */\n    function recover(\n        bytes32 hash,\n        uint8 v,\n        bytes32 r,\n        bytes32 s\n    ) internal pure returns (address) {\n        (address recovered, RecoverError error) = tryRecover(hash, v, r, s);\n        _throwError(error);\n        return recovered;\n    }\n\n    /**\n     * @dev Returns an Ethereum Signed Message, created from a `hash`. This\n     * produces hash corresponding to the one signed with the\n     * https://eth.wiki/json-rpc/API#eth_sign[`eth_sign`]\n     * JSON-RPC method as part of EIP-191.\n     *\n     * See {recover}.\n     */\n    function toEthSignedMessageHash(bytes32 hash) internal pure returns (bytes32) {\n        // 32 is the length in bytes of hash,\n        // enforced by the type signature above\n        return keccak256(abi.encodePacked(\"\\x19Ethereum Signed Message:\\n32\", hash));\n    }\n\n    /**\n     * @dev Returns an Ethereum Signed Message, created from `s`. This\n     * produces hash corresponding to the one signed with the\n     * https://eth.wiki/json-rpc/API#eth_sign[`eth_sign`]\n     * JSON-RPC method as part of EIP-191.\n     *\n     * See {recover}.\n     */\n    function toEthSignedMessageHash(bytes memory s) internal pure returns (bytes32) {\n        return keccak256(abi.encodePacked(\"\\x19Ethereum Signed Message:\\n\", Strings.toString(s.length), s));\n    }\n\n    /**\n     * @dev Returns an Ethereum Signed Typed Data, created from a\n     * `domainSeparator` and a `structHash`. This produces hash corresponding\n     * to the one signed with the\n     * https://eips.ethereum.org/EIPS/eip-712[`eth_signTypedData`]\n     * JSON-RPC method as part of EIP-712.\n     *\n     * See {recover}.\n     */\n    function toTypedDataHash(bytes32 domainSeparator, bytes32 structHash) internal pure returns (bytes32) {\n        return keccak256(abi.encodePacked(\"\\x19\\x01\", domainSeparator, structHash));\n    }\n}\n"
    },
    "contracts/facets/RentalFacet.sol": {
      "content": "//SPDX-License-Identifier: Unlicense\npragma solidity 0.8.10;\nimport \"./../libraries/LibAppStorage.sol\";\nimport \"./../libraries/UsingEIP712.sol\";\nimport \"@openzeppelin/contracts/token/ERC20/utils/SafeERC20.sol\";\nimport \"@openzeppelin/contracts/utils/math/SafeMath.sol\";\n\ncontract RentalFacet is UsingEIP712 {\n    using SafeERC20 for IERC20;\n    using SafeMath for uint256;\n    event RentalCreated(\n        uint256 tokenId,\n        address indexed owner,\n        address indexed renter,\n        address indexed currency,\n        uint64 startingTimestamp,\n        uint64 unitOfTime,\n        uint32 numberOfUnits\n    );\n\n    event RentalRefund(\n        uint256 tokenId,\n        address indexed owner,\n        address indexed renter,\n        uint256 amount\n    );\n\n    event RentalEnd(\n        uint256 tokenId,\n        address indexed owner,\n        address indexed renter\n    );\n\n    function rent(\n        RentalAgreement calldata agreement,\n        bytes calldata ownerSignature,\n        bytes calldata renterSignature\n    ) external {\n        // CHECKS\n        address rentalOwner;\n        address renter;\n        IERC20 token = IERC20(agreement.currency);\n        uint256 total;\n        {\n            require(\n                agreement.numberOfUnits > 0 && agreement.unitOfTime >= 1 hours\n            );\n            require(agreement.deadline >= block.timestamp);\n            require(!_isRenting(agreement.tokenId));\n\n            {\n                rentalOwner = _verifyAgreement(agreement, ownerSignature);\n                renter = _verifyAgreement(agreement, renterSignature);\n            }\n            require(\n                msg.sender == renter &&\n                    rentalOwner == s.erc721Owners[agreement.tokenId] &&\n                    rentalOwner != address(0)\n            );\n            require(\n                agreement.currency != address(0) &&\n                    s.supportsCurrency[agreement.currency]\n            );\n            total = agreement.pricePerUnit.mul(agreement.numberOfUnits);\n            require(token.allowance(msg.sender, address(this)) >= total);\n        }\n\n        // EFFECTS\n        {\n            uint256 before = s.erc20Pending[address(token)][rentalOwner];\n            s.erc20Pending[address(token)][rentalOwner] = before.add(total);\n\n            // clear approvals\n            _transfer(rentalOwner, renter, agreement.tokenId);\n            s.rentals[agreement.tokenId] = Rental({\n                agreement: agreement,\n                owner: rentalOwner,\n                renter: renter,\n                startingTimestamp: uint64(block.timestamp)\n            });\n        }\n\n        // INTERACTIONS\n        token.safeTransferFrom(msg.sender, address(this), total);\n        emit RentalCreated(\n            agreement.tokenId,\n            rentalOwner,\n            renter,\n            agreement.currency,\n            uint64(block.timestamp),\n            agreement.unitOfTime,\n            agreement.numberOfUnits\n        );\n    }\n\n    function endRental(\n        RentalPayback calldata payback,\n        bytes calldata ownerSignature\n    ) external {\n        // CHECKS\n        require(payback.deadline >= block.timestamp);\n        require(_isRenting(payback.tokenId));\n        address signer = _verifyPayback(payback, ownerSignature);\n        require(signer == s.rentals[payback.tokenId].owner);\n        Rental memory rental = s.rentals[payback.tokenId];\n        if (payback.paybackAmount > 0) {\n            IERC20 token = IERC20(rental.agreement.currency);\n            require(\n                token.allowance(rental.owner, address(this)) >=\n                    payback.paybackAmount\n            );\n\n            uint256 before = s.erc20Pending[address(token)][rental.renter];\n            s.erc20Pending[address(token)][rental.renter] = before.add(\n                payback.paybackAmount\n            );\n\n            token.safeTransferFrom(\n                rental.owner,\n                address(this),\n                payback.paybackAmount\n            );\n        }\n        _transfer(rental.renter, rental.owner, payback.tokenId);\n        delete s.rentals[payback.tokenId];\n        assert(!_isRenting(payback.tokenId));\n        emit RentalEnd(payback.tokenId, rental.renter, rental.owner);\n        emit RentalRefund(\n            payback.tokenId,\n            rental.owner,\n            rental.renter,\n            payback.paybackAmount\n        );\n    }\n\n    function revoke(uint256 tokenId) external {\n        Rental memory rental = s.rentals[tokenId];\n        require(msg.sender == rental.owner);\n        require(_isRenting(tokenId));\n        uint256 duration = uint256(rental.agreement.unitOfTime).mul(\n            rental.agreement.numberOfUnits\n        );\n        require(\n            block.timestamp > uint256(rental.startingTimestamp).add(duration)\n        );\n        _transfer(rental.renter, rental.owner, tokenId);\n        delete s.rentals[tokenId];\n        assert(!_isRenting(tokenId));\n        emit RentalEnd(tokenId, rental.renter, rental.owner);\n    }\n\n    function onRenting(uint256 tokenId) public view returns (bool) {\n        return _isRenting(tokenId);\n    }\n\n    function getRental(uint256 tokenId) public view returns (Rental memory) {\n        require(_isRenting(tokenId));\n        return s.rentals[tokenId];\n    }\n\n    function _isRenting(uint256 tokenId) internal view returns (bool) {\n        return\n            s.rentals[tokenId].owner != address(0) &&\n            s.rentals[tokenId].renter != address(0);\n    }\n\n    function _verifyPayback(\n        RentalPayback calldata payback,\n        bytes calldata signature\n    ) internal view returns (address) {\n        bytes32 digest = _hashPayback(payback);\n        return ECDSA.recover(digest, signature);\n    }\n\n    function _hashPayback(RentalPayback calldata payback)\n        internal\n        view\n        returns (bytes32)\n    {\n        return\n            _hashTypedDataV4(\n                keccak256(\n                    abi.encode(\n                        PAYBACK_TYPEHASH,\n                        payback.tokenId,\n                        payback.paybackAmount,\n                        payback.renter,\n                        payback.deadline\n                    )\n                )\n            );\n    }\n\n    function _verifyAgreement(\n        RentalAgreement calldata agreement,\n        bytes calldata signature\n    ) internal view returns (address) {\n        bytes32 digest = _hashAgreement(agreement);\n        return ECDSA.recover(digest, signature);\n    }\n\n    function _hashAgreement(RentalAgreement calldata agreement)\n        internal\n        view\n        returns (bytes32)\n    {\n        return\n            _hashTypedDataV4(\n                keccak256(\n                    abi.encode(\n                        AGREEMENT_TYPEHASH,\n                        agreement.tokenId,\n                        agreement.pricePerUnit,\n                        agreement.currency,\n                        agreement.unitOfTime,\n                        agreement.deadline,\n                        agreement.numberOfUnits\n                    )\n                )\n            );\n    }\n\n    function _transfer(\n        address from,\n        address to,\n        uint256 tokenId\n    ) internal {\n        s.erc721TokenApprovals[tokenId] = address(0);\n        s.erc721Balances[from] -= 1;\n        s.erc721Balances[to] += 1;\n        s.erc721Owners[tokenId] = to;\n    }\n}\n"
    },
    "contracts/facets/WithdrawalFacet.sol": {
      "content": "//SPDX-License-Identifier: Unlicense\npragma solidity 0.8.10;\nimport \"./../libraries/LibAppStorage.sol\";\nimport \"@openzeppelin/contracts/token/ERC20/utils/SafeERC20.sol\";\nimport \"@openzeppelin/contracts/interfaces/IERC20.sol\";\n\ncontract WithdrawalFacet is Modifiers {\n    using SafeERC20 for IERC20;\n    event WithdrawETH(address indexed account, uint256 amount);\n\n    event WithdrawERC20(\n        address indexed account,\n        address indexed token,\n        uint256 amount\n    );\n\n    function withdrawETH() external {\n        uint256 balance = s.ethPending[msg.sender];\n        s.ethPending[msg.sender] = 0;\n        payable(msg.sender).transfer(balance);\n        emit WithdrawETH(msg.sender, balance);\n    }\n\n    function withdrawERC20(address token) external {\n        uint256 balance = s.erc20Pending[token][msg.sender];\n        s.erc20Pending[token][msg.sender] = 0;\n        IERC20(token).safeTransfer(msg.sender, balance);\n        emit WithdrawERC20(msg.sender, token, balance);\n    }\n\n    function pendingETH(address account) external view returns (uint256) {\n        return s.ethPending[account];\n    }\n\n    function pendingERC20(address account, address token)\n        external\n        view\n        returns (uint256)\n    {\n        return s.erc20Pending[token][account];\n    }\n}\n"
    },
    "contracts/facets/UnderlyingCurrencyFacet.sol": {
      "content": "//SPDX-License-Identifier: Unlicense\npragma solidity 0.8.10;\nimport \"./../libraries/LibAppStorage.sol\";\n\ncontract UnderlyingCurrencyFacet is Modifiers {\n    event CurrencySet(address tokenAddress, bool flag);\n\n    function setCurrency(address tokenAddress, bool flag) external onlyOwner {\n        if (tokenAddress == address(0)) {\n            s.supportsEther = flag;\n        } else {\n            s.supportsCurrency[tokenAddress] = flag;\n        }\n        emit CurrencySet(tokenAddress, flag);\n    }\n\n    function supportsCurrency(address tokenAddress)\n        external\n        view\n        returns (bool)\n    {\n        return\n            tokenAddress == address(0)\n                ? s.supportsEther\n                : s.supportsCurrency[tokenAddress];\n    }\n}\n"
    },
    "contracts/upgradeInitializer/ERC721Init.sol": {
      "content": "//SPDX-License-Identifier: Unlicense\npragma solidity 0.8.10;\nimport \"./../libraries/UsingEIP712.sol\";\nimport \"hardhat-deploy/solc_0.8/diamond/libraries/LibDiamond.sol\";\nimport \"@openzeppelin/contracts/interfaces/IERC721.sol\";\nimport \"@openzeppelin/contracts/interfaces/IERC721Metadata.sol\";\nimport \"@openzeppelin/contracts/access/IAccessControl.sol\";\n\ncontract ERC721Init is UsingEIP712 {\n    struct Init {\n        string name;\n        string symbol;\n        string domainName;\n        string version;\n        address feeCollector;\n        address defaultMinter;\n    }\n\n    function init(Init calldata data) external {\n        s.name = data.name;\n        s.symbol = data.symbol;\n        s.domainName = data.domainName;\n        s.version = data.version;\n        s.feeCollector = data.feeCollector;\n        s.supportsEther = true;\n        s.roles[MINTER_ROLE].members[data.defaultMinter] = true;\n        s.roles[DEFAULT_ADMIN_ROLE].members[msg.sender] = true;\n        LibDiamond.DiamondStorage storage ds = LibDiamond.diamondStorage();\n        ds.supportedInterfaces[type(IERC721).interfaceId] = true;\n        ds.supportedInterfaces[type(IERC721Metadata).interfaceId] = true;\n        ds.supportedInterfaces[type(IAccessControl).interfaceId] = true;\n\n        bytes32 hashedName = keccak256(bytes(data.domainName));\n        bytes32 hashedVersion = keccak256(bytes(data.version));\n        bytes32 typeHash = keccak256(\n            \"EIP712Domain(string name,string version,uint256 chainId,address verifyingContract)\"\n        );\n        s._HASHED_NAME = hashedName;\n        s._HASHED_VERSION = hashedVersion;\n        s._CACHED_CHAIN_ID = block.chainid;\n        s._CACHED_DOMAIN_SEPARATOR = _buildDomainSeparator(\n            typeHash,\n            hashedName,\n            hashedVersion\n        );\n        s._CACHED_THIS = address(this);\n        s._TYPE_HASH = typeHash;\n    }\n}\n"
    },
    "@openzeppelin/contracts/interfaces/IERC721.sol": {
      "content": "// SPDX-License-Identifier: MIT\n// OpenZeppelin Contracts v4.4.1 (interfaces/IERC721.sol)\n\npragma solidity ^0.8.0;\n\nimport \"../token/ERC721/IERC721.sol\";\n"
    },
    "contracts/facets/ERC165Facet.sol": {
      "content": "//SPDX-License-Identifier: Unlicense\npragma solidity 0.8.10;\n\nimport \"hardhat-deploy/solc_0.8/diamond/libraries/LibDiamond.sol\";\n\ncontract ERC165Facet {\n    function supportsInterface(bytes4 interfaceId)\n        external\n        view\n        returns (bool)\n    {\n        return LibDiamond.diamondStorage().supportedInterfaces[interfaceId];\n    }\n}\n"
    }
  },
  "settings": {
    "optimizer": {
      "enabled": false,
      "runs": 200
    },
    "outputSelection": {
      "*": {
        "*": [
          "abi",
          "evm.bytecode",
          "evm.deployedBytecode",
          "evm.methodIdentifiers",
          "metadata",
          "devdoc",
          "userdoc",
          "storageLayout",
          "evm.gasEstimates"
        ],
        "": [
          "ast"
        ]
      }
    },
    "metadata": {
      "useLiteralContent": true
    }
  }
}